#Fields: event,computer,operator,source,sourceid,executionid,starttime,endtime,datacode,databytes,message
PackageStart,A,a\admin,DeltaLoadECRDR1,{A3FFB5D8-39E9-4C79-814C-7881F254C24C},{5DD70D3B-3D16-4293-93A6-DDF9DB3066FB},24/10/2016 13:23:55,24/10/2016 13:23:55,0,0x,Beginning of package execution.

OnError,A,a\admin,DeltaLoadECRDR1,{A3FFB5D8-39E9-4C79-814C-7881F254C24C},{5DD70D3B-3D16-4293-93A6-DDF9DB3066FB},24/10/2016 14:26:42,24/10/2016 14:26:42,-1073548784,0x,Executing the query "ALTER Index [idx_NonUniqueNCI_ECRDR1_READERCODE] O..." failed with the following error: "[DBNETLIB][ConnectionRead (recv()).]General network error. Check your network documentation.". Possible failure reasons: Problems with the query, "ResultSet" property not set correctly, parameters not set correctly, or connection not established correctly.

PackageEnd,A,a\admin,DeltaLoadECRDR1,{A3FFB5D8-39E9-4C79-814C-7881F254C24C},{5DD70D3B-3D16-4293-93A6-DDF9DB3066FB},24/10/2016 14:26:47,24/10/2016 14:26:47,1,0x,End of package execution.

PackageStart,A,a\admin,DeltaLoadECRDR1,{A3FFB5D8-39E9-4C79-814C-7881F254C24C},{4EA77F39-5A71-4291-82C9-3691409E5CD3},24/10/2016 14:56:53,24/10/2016 14:56:53,0,0x,Beginning of package execution.

PackageEnd,A,a\admin,DeltaLoadECRDR1,{A3FFB5D8-39E9-4C79-814C-7881F254C24C},{4EA77F39-5A71-4291-82C9-3691409E5CD3},24/10/2016 15:22:46,24/10/2016 15:22:46,0,0x,End of package execution.

PackageStart,PEAKLENOVO,PEAKLENOVO\peak,DeltaLoadECRDR1,{A3FFB5D8-39E9-4C79-814C-7881F254C24C},{3122F6AD-7BDF-44B5-B509-70324634FEAD},25-10-2016 15:26:20,25-10-2016 15:26:20,0,0x,Beginning of package execution.

PackageEnd,PEAKLENOVO,PEAKLENOVO\peak,DeltaLoadECRDR1,{A3FFB5D8-39E9-4C79-814C-7881F254C24C},{3122F6AD-7BDF-44B5-B509-70324634FEAD},25-10-2016 17:24:00,25-10-2016 17:24:00,0,0x,End of package execution.

PackageStart,PEAKLENOVO,PEAKLENOVO\peak,DeltaLoadECRDR1,{A3FFB5D8-39E9-4C79-814C-7881F254C24C},{27C6A3A2-95A5-4467-924E-BC8D207E7274},03-11-2016 11:57:48,03-11-2016 11:57:48,0,0x,Beginning of package execution.

OnError,PEAKLENOVO,PEAKLENOVO\peak,DeltaLoadECRDR1,{A3FFB5D8-39E9-4C79-814C-7881F254C24C},{27C6A3A2-95A5-4467-924E-BC8D207E7274},03-11-2016 11:57:48,03-11-2016 11:57:48,-1073573396,0x,Failed to acquire connection "ChildConnMgrECRDR1.QSSSTGCODS2". Connection may not be configured correctly or you may not have the right permissions on this connection.

OnError,PEAKLENOVO,PEAKLENOVO\peak,DeltaLoadECRDR1,{A3FFB5D8-39E9-4C79-814C-7881F254C24C},{27C6A3A2-95A5-4467-924E-BC8D207E7274},03-11-2016 11:57:48,03-11-2016 11:57:48,-1073573396,0x,Failed to acquire connection "ChildConnMgrECRDR1.QSSSTGCODS2". Connection may not be configured correctly or you may not have the right permissions on this connection.

PackageEnd,PEAKLENOVO,PEAKLENOVO\peak,DeltaLoadECRDR1,{A3FFB5D8-39E9-4C79-814C-7881F254C24C},{27C6A3A2-95A5-4467-924E-BC8D207E7274},03-11-2016 11:57:48,03-11-2016 11:57:48,1,0x,End of package execution.

PackageStart,PEAKLENOVO,PEAKLENOVO\peak,DeltaLoadECRDR1,{A3FFB5D8-39E9-4C79-814C-7881F254C24C},{C4AB3A5B-0910-45D9-895B-067C2568F622},03-11-2016 12:21:50,03-11-2016 12:21:50,0,0x,Beginning of package execution.

PackageEnd,PEAKLENOVO,PEAKLENOVO\peak,DeltaLoadECRDR1,{A3FFB5D8-39E9-4C79-814C-7881F254C24C},{C4AB3A5B-0910-45D9-895B-067C2568F622},03-11-2016 15:27:35,03-11-2016 15:27:35,0,0x,End of package execution.

PackageStart,PEAKLENOVO,PEAKLENOVO\peak,DeltaLoadECRDR1,{A3FFB5D8-39E9-4C79-814C-7881F254C24C},{92D7475B-86B0-4B8E-A52F-EE7E8B5CD654},04-11-2016 17:17:22,04-11-2016 17:17:22,0,0x,Beginning of package execution.

PackageEnd,PEAKLENOVO,PEAKLENOVO\peak,DeltaLoadECRDR1,{A3FFB5D8-39E9-4C79-814C-7881F254C24C},{92D7475B-86B0-4B8E-A52F-EE7E8B5CD654},04-11-2016 18:52:40,04-11-2016 18:52:40,0,0x,End of package execution.

PackageStart,PEAKLENOVO,PEAKLENOVO\peak,DeltaLoadECRDR1,{A3FFB5D8-39E9-4C79-814C-7881F254C24C},{3A77F033-4165-45E0-ABF5-A307A8AA2DD1},04-11-2016 19:14:55,04-11-2016 19:14:55,0,0x,Beginning of package execution.

PackageEnd,PEAKLENOVO,PEAKLENOVO\peak,DeltaLoadECRDR1,{A3FFB5D8-39E9-4C79-814C-7881F254C24C},{3A77F033-4165-45E0-ABF5-A307A8AA2DD1},04-11-2016 19:14:56,04-11-2016 19:14:56,0,0x,End of package execution.

PackageStart,PEAKLENOVO,PEAKLENOVO\peak,DeltaLoadECRDR1,{A3FFB5D8-39E9-4C79-814C-7881F254C24C},{32E49E96-19D0-43CA-AB07-752AA0592B88},07-11-2016 16:03:56,07-11-2016 16:03:56,0,0x,Beginning of package execution.

OnError,PEAKLENOVO,PEAKLENOVO\peak,DeltaLoadECRDR1,{A3FFB5D8-39E9-4C79-814C-7881F254C24C},{32E49E96-19D0-43CA-AB07-752AA0592B88},07-11-2016 16:36:17,07-11-2016 16:36:17,-1073548784,0x,Executing the query "

insert into dbo.ECRDR1
( 
      COMPANYCODE
    ..." failed with the following error: "[DBNETLIB][ConnectionRead (recv()).]General network error. Check your network documentation.". Possible failure reasons: Problems with the query, "ResultSet" property not set correctly, parameters not set correctly, or connection not established correctly.

PackageStart,PEAKLENOVO,PEAKLENOVO\peak,DeltaLoadECRDR1,{A3FFB5D8-39E9-4C79-814C-7881F254C24C},{5F04738E-46DE-46CE-9CFA-646FD4AC29A4},07-11-2016 16:54:33,07-11-2016 16:54:33,0,0x,Beginning of package execution.

PackageEnd,PEAKLENOVO,PEAKLENOVO\peak,DeltaLoadECRDR1,{A3FFB5D8-39E9-4C79-814C-7881F254C24C},{5F04738E-46DE-46CE-9CFA-646FD4AC29A4},07-11-2016 18:49:33,07-11-2016 18:49:33,0,0x,End of package execution.

PackageStart,WIN-SIPPC8OIN8R,WIN-SIPPC8OIN8R\Administrator,DeltaLoadECRDR1,{A3FFB5D8-39E9-4C79-814C-7881F254C24C},{245173B8-051D-40A8-9963-D2CA89A4861C},11/24/2016 11:05:58 AM,11/24/2016 11:05:58 AM,0,0x,Beginning of package execution.

OnError,WIN-SIPPC8OIN8R,WIN-SIPPC8OIN8R\Administrator,DeltaLoadECRDR1,{A3FFB5D8-39E9-4C79-814C-7881F254C24C},{245173B8-051D-40A8-9963-D2CA89A4861C},11/24/2016 11:05:58 AM,11/24/2016 11:05:58 AM,1,0x,Exception has been thrown by the target of an invocation.
PackageEnd,WIN-SIPPC8OIN8R,WIN-SIPPC8OIN8R\Administrator,DeltaLoadECRDR1,{A3FFB5D8-39E9-4C79-814C-7881F254C24C},{245173B8-051D-40A8-9963-D2CA89A4861C},11/24/2016 11:05:58 AM,11/24/2016 11:05:58 AM,1,0x,End of package execution.

PackageStart,WIN-SIPPC8OIN8R,WIN-SIPPC8OIN8R\Administrator,DeltaLoadECRDR1,{A3FFB5D8-39E9-4C79-814C-7881F254C24C},{A2F92837-F4AE-4573-92F8-7D8AE6A81A60},11/24/2016 11:28:44 AM,11/24/2016 11:28:44 AM,0,0x,Beginning of package execution.

OnError,WIN-SIPPC8OIN8R,WIN-SIPPC8OIN8R\Administrator,DeltaLoadECRDR1,{A3FFB5D8-39E9-4C79-814C-7881F254C24C},{A2F92837-F4AE-4573-92F8-7D8AE6A81A60},11/24/2016 11:28:44 AM,11/24/2016 11:28:44 AM,1,0x,Exception has been thrown by the target of an invocation.
PackageEnd,WIN-SIPPC8OIN8R,WIN-SIPPC8OIN8R\Administrator,DeltaLoadECRDR1,{A3FFB5D8-39E9-4C79-814C-7881F254C24C},{A2F92837-F4AE-4573-92F8-7D8AE6A81A60},11/24/2016 11:28:44 AM,11/24/2016 11:28:44 AM,1,0x,End of package execution.

PackageStart,WIN-SIPPC8OIN8R,WIN-SIPPC8OIN8R\Administrator,DeltaLoadECRDR1,{A3FFB5D8-39E9-4C79-814C-7881F254C24C},{AD8BA6F8-C812-4097-AF6C-834BCEBA373C},11/24/2016 11:36:14 AM,11/24/2016 11:36:14 AM,0,0x,Beginning of package execution.

OnError,WIN-SIPPC8OIN8R,WIN-SIPPC8OIN8R\Administrator,DeltaLoadECRDR1,{A3FFB5D8-39E9-4C79-814C-7881F254C24C},{AD8BA6F8-C812-4097-AF6C-834BCEBA373C},11/24/2016 12:31:54 PM,11/24/2016 12:31:54 PM,0,0x,The transaction log for database 'tempdb' is full due to 'ACTIVE_TRANSACTION'. 
OnError,WIN-SIPPC8OIN8R,WIN-SIPPC8OIN8R\Administrator,DeltaLoadECRDR1,{A3FFB5D8-39E9-4C79-814C-7881F254C24C},{AD8BA6F8-C812-4097-AF6C-834BCEBA373C},11/24/2016 12:31:54 PM,11/24/2016 12:31:54 PM,-1073548784,0x,Executing the query "

insert into dbo.ECRDR1
( 
      COMPANYCODE
    ..." failed with the following error: "The transaction log for database 'tempdb' is full due to 'ACTIVE_TRANSACTION'. ". Possible failure reasons: Problems with the query, "ResultSet" property not set correctly, parameters not set correctly, or connection not established correctly.

PackageEnd,WIN-SIPPC8OIN8R,WIN-SIPPC8OIN8R\Administrator,DeltaLoadECRDR1,{A3FFB5D8-39E9-4C79-814C-7881F254C24C},{AD8BA6F8-C812-4097-AF6C-834BCEBA373C},11/24/2016 12:31:54 PM,11/24/2016 12:31:54 PM,1,0x,End of package execution.

PackageStart,WIN-SIPPC8OIN8R,WIN-SIPPC8OIN8R\Administrator,DeltaLoadECRDR1,{A3FFB5D8-39E9-4C79-814C-7881F254C24C},{8960AF0C-37CA-43DB-9E77-6F5D9F68B51B},11/24/2016 1:11:41 PM,11/24/2016 1:11:41 PM,0,0x,Beginning of package execution.

OnError,WIN-SIPPC8OIN8R,WIN-SIPPC8OIN8R\Administrator,DeltaLoadECRDR1,{A3FFB5D8-39E9-4C79-814C-7881F254C24C},{8960AF0C-37CA-43DB-9E77-6F5D9F68B51B},11/24/2016 1:54:42 PM,11/24/2016 1:54:42 PM,-1073548784,0x,Executing the query "

insert into dbo.ECRDR1
( 
      COMPANYCODE
    ..." failed with the following error: "Could not allocate space for object 'dbo.SORT temporary run storage:  140744352333824' in database 'tempdb' because the 'PRIMARY' filegroup is full. Create disk space by deleting unneeded files, dropping objects in the filegroup, adding additional files to the filegroup, or setting autogrowth on for existing files in the filegroup.". Possible failure reasons: Problems with the query, "ResultSet" property not set correctly, parameters not set correctly, or connection not established correctly.

PackageEnd,WIN-SIPPC8OIN8R,WIN-SIPPC8OIN8R\Administrator,DeltaLoadECRDR1,{A3FFB5D8-39E9-4C79-814C-7881F254C24C},{8960AF0C-37CA-43DB-9E77-6F5D9F68B51B},11/24/2016 1:54:45 PM,11/24/2016 1:54:45 PM,1,0x,End of package execution.

PackageStart,WIN-SIPPC8OIN8R,WIN-SIPPC8OIN8R\Administrator,DeltaLoadECRDR1,{A3FFB5D8-39E9-4C79-814C-7881F254C24C},{E54F27EC-C7EB-4CC9-A23D-B99F5B4F9ED9},11/25/2016 6:45:20 AM,11/25/2016 6:45:20 AM,0,0x,Beginning of package execution.

PackageEnd,WIN-SIPPC8OIN8R,WIN-SIPPC8OIN8R\Administrator,DeltaLoadECRDR1,{A3FFB5D8-39E9-4C79-814C-7881F254C24C},{E54F27EC-C7EB-4CC9-A23D-B99F5B4F9ED9},11/25/2016 8:40:08 AM,11/25/2016 8:40:08 AM,0,0x,End of package execution.

PackageStart,WIN-SIPPC8OIN8R,WIN-SIPPC8OIN8R\Administrator,DeltaLoadECRDR1,{A3FFB5D8-39E9-4C79-814C-7881F254C24C},{AF5AB6C8-ED9B-4812-A990-A605A53F94AE},12/5/2016 5:43:42 AM,12/5/2016 5:43:42 AM,0,0x,Beginning of package execution.

PackageEnd,WIN-SIPPC8OIN8R,WIN-SIPPC8OIN8R\Administrator,DeltaLoadECRDR1,{A3FFB5D8-39E9-4C79-814C-7881F254C24C},{AF5AB6C8-ED9B-4812-A990-A605A53F94AE},12/5/2016 6:06:02 AM,12/5/2016 6:06:02 AM,0,0x,End of package execution.

PackageStart,WIN-SIPPC8OIN8R,WIN-SIPPC8OIN8R\Administrator,DeltaLoadECRDR1,{A3FFB5D8-39E9-4C79-814C-7881F254C24C},{F36F3735-006F-459B-877F-B4421F7A7779},12/7/2016 7:26:25 AM,12/7/2016 7:26:25 AM,0,0x,Beginning of package execution.

PackageEnd,WIN-SIPPC8OIN8R,WIN-SIPPC8OIN8R\Administrator,DeltaLoadECRDR1,{A3FFB5D8-39E9-4C79-814C-7881F254C24C},{F36F3735-006F-459B-877F-B4421F7A7779},12/7/2016 7:53:28 AM,12/7/2016 7:53:28 AM,0,0x,End of package execution.

PackageStart,WIN-SIPPC8OIN8R,WIN-SIPPC8OIN8R\Administrator,DeltaLoadECRDR1,{A3FFB5D8-39E9-4C79-814C-7881F254C24C},{1F80111A-7B5D-4746-87E9-B7C12EAD3DC0},12/8/2016 6:01:52 AM,12/8/2016 6:01:52 AM,0,0x,Beginning of package execution.

PackageEnd,WIN-SIPPC8OIN8R,WIN-SIPPC8OIN8R\Administrator,DeltaLoadECRDR1,{A3FFB5D8-39E9-4C79-814C-7881F254C24C},{1F80111A-7B5D-4746-87E9-B7C12EAD3DC0},12/8/2016 6:26:47 AM,12/8/2016 6:26:47 AM,0,0x,End of package execution.

PackageStart,WIN-SIPPC8OIN8R,WIN-SIPPC8OIN8R\Administrator,DeltaLoadECRDR1,{A3FFB5D8-39E9-4C79-814C-7881F254C24C},{C73D5ECC-3B42-45B1-858C-721C097A660A},12/9/2016 7:12:54 AM,12/9/2016 7:12:54 AM,0,0x,Beginning of package execution.

PackageEnd,WIN-SIPPC8OIN8R,WIN-SIPPC8OIN8R\Administrator,DeltaLoadECRDR1,{A3FFB5D8-39E9-4C79-814C-7881F254C24C},{C73D5ECC-3B42-45B1-858C-721C097A660A},12/9/2016 7:38:47 AM,12/9/2016 7:38:47 AM,0,0x,End of package execution.

PackageStart,WIN-SIPPC8OIN8R,WIN-SIPPC8OIN8R\Administrator,DeltaLoadECRDR1,{A3FFB5D8-39E9-4C79-814C-7881F254C24C},{44750145-4CC7-49DF-B130-D585BA2CCE5B},12/12/2016 12:47:14 PM,12/12/2016 12:47:14 PM,0,0x,Beginning of package execution.

PackageEnd,WIN-SIPPC8OIN8R,WIN-SIPPC8OIN8R\Administrator,DeltaLoadECRDR1,{A3FFB5D8-39E9-4C79-814C-7881F254C24C},{44750145-4CC7-49DF-B130-D585BA2CCE5B},12/12/2016 12:57:23 PM,12/12/2016 12:57:23 PM,0,0x,End of package execution.

PackageStart,WIN-SIPPC8OIN8R,WIN-SIPPC8OIN8R\Administrator,DeltaLoadECRDR1,{A3FFB5D8-39E9-4C79-814C-7881F254C24C},{2D9E5C0B-929A-4455-A384-39055F8A01E3},1/13/2017 7:20:57 AM,1/13/2017 7:20:57 AM,0,0x,Beginning of package execution.

PackageEnd,WIN-SIPPC8OIN8R,WIN-SIPPC8OIN8R\Administrator,DeltaLoadECRDR1,{A3FFB5D8-39E9-4C79-814C-7881F254C24C},{2D9E5C0B-929A-4455-A384-39055F8A01E3},1/13/2017 9:41:49 AM,1/13/2017 9:41:49 AM,0,0x,End of package execution.

