#Fields: event,computer,operator,source,sourceid,executionid,starttime,endtime,datacode,databytes,message
PackageStart,A,a\admin,DeltaLoadECPRC1,{C691668B-2F39-492E-BDD7-8E07AE805E4B},{136EA56A-5223-4FFF-B307-424436D54083},24/10/2016 13:23:52,24/10/2016 13:23:52,0,0x,Beginning of package execution.

PackageEnd,A,a\admin,DeltaLoadECPRC1,{C691668B-2F39-492E-BDD7-8E07AE805E4B},{136EA56A-5223-4FFF-B307-424436D54083},24/10/2016 13:25:23,24/10/2016 13:25:23,0,0x,End of package execution.

PackageStart,PEAKLENOVO,PEAKLENOVO\peak,DeltaLoadECPRC1,{C691668B-2F39-492E-BDD7-8E07AE805E4B},{D3BC8348-F495-4F4F-86D3-77D5CFF9CE5B},25-10-2016 15:26:18,25-10-2016 15:26:18,0,0x,Beginning of package execution.

PackageEnd,PEAKLENOVO,PEAKLENOVO\peak,DeltaLoadECPRC1,{C691668B-2F39-492E-BDD7-8E07AE805E4B},{D3BC8348-F495-4F4F-86D3-77D5CFF9CE5B},25-10-2016 15:28:15,25-10-2016 15:28:15,0,0x,End of package execution.

PackageStart,PEAKLENOVO,PEAKLENOVO\peak,DeltaLoadECPRC1,{C691668B-2F39-492E-BDD7-8E07AE805E4B},{367D8D11-CEAC-4A08-B00D-F8B7B2839A2C},03-11-2016 11:57:45,03-11-2016 11:57:45,0,0x,Beginning of package execution.

PackageEnd,PEAKLENOVO,PEAKLENOVO\peak,DeltaLoadECPRC1,{C691668B-2F39-492E-BDD7-8E07AE805E4B},{367D8D11-CEAC-4A08-B00D-F8B7B2839A2C},03-11-2016 11:59:09,03-11-2016 11:59:09,0,0x,End of package execution.

PackageStart,PEAKLENOVO,PEAKLENOVO\peak,DeltaLoadECPRC1,{C691668B-2F39-492E-BDD7-8E07AE805E4B},{770B5133-1758-4CB2-859F-9636D49F04F8},04-11-2016 17:17:24,04-11-2016 17:17:24,0,0x,Beginning of package execution.

PackageEnd,PEAKLENOVO,PEAKLENOVO\peak,DeltaLoadECPRC1,{C691668B-2F39-492E-BDD7-8E07AE805E4B},{770B5133-1758-4CB2-859F-9636D49F04F8},04-11-2016 17:22:21,04-11-2016 17:22:21,0,0x,End of package execution.

PackageStart,PEAKLENOVO,PEAKLENOVO\peak,DeltaLoadECPRC1,{C691668B-2F39-492E-BDD7-8E07AE805E4B},{FE596B3F-86BF-444A-BA05-683D5C19979C},07-11-2016 16:03:52,07-11-2016 16:03:52,0,0x,Beginning of package execution.

PackageEnd,PEAKLENOVO,PEAKLENOVO\peak,DeltaLoadECPRC1,{C691668B-2F39-492E-BDD7-8E07AE805E4B},{FE596B3F-86BF-444A-BA05-683D5C19979C},07-11-2016 16:14:48,07-11-2016 16:14:48,0,0x,End of package execution.

PackageStart,PEAKLENOVO,PEAKLENOVO\peak,DeltaLoadECPRC1,{C691668B-2F39-492E-BDD7-8E07AE805E4B},{B52312AE-BC4C-4320-93EA-F2F9F23CF747},07-11-2016 16:54:32,07-11-2016 16:54:32,0,0x,Beginning of package execution.

PackageEnd,PEAKLENOVO,PEAKLENOVO\peak,DeltaLoadECPRC1,{C691668B-2F39-492E-BDD7-8E07AE805E4B},{B52312AE-BC4C-4320-93EA-F2F9F23CF747},07-11-2016 17:05:02,07-11-2016 17:05:02,0,0x,End of package execution.

PackageStart,WIN-SIPPC8OIN8R,WIN-SIPPC8OIN8R\Administrator,DeltaLoadECPRC1,{C691668B-2F39-492E-BDD7-8E07AE805E4B},{AEE012B8-83B5-455F-9589-E325B4D2CBEA},11/25/2016 8:43:56 AM,11/25/2016 8:43:56 AM,0,0x,Beginning of package execution.

PackageEnd,WIN-SIPPC8OIN8R,WIN-SIPPC8OIN8R\Administrator,DeltaLoadECPRC1,{C691668B-2F39-492E-BDD7-8E07AE805E4B},{AEE012B8-83B5-455F-9589-E325B4D2CBEA},11/25/2016 8:45:18 AM,11/25/2016 8:45:18 AM,0,0x,End of package execution.

PackageStart,WIN-SIPPC8OIN8R,WIN-SIPPC8OIN8R\Administrator,DeltaLoadECPRC1,{C691668B-2F39-492E-BDD7-8E07AE805E4B},{12D6CD60-48A7-47E2-B104-2A3CF5485A89},11/25/2016 10:19:03 AM,11/25/2016 10:19:03 AM,0,0x,Beginning of package execution.

PackageEnd,WIN-SIPPC8OIN8R,WIN-SIPPC8OIN8R\Administrator,DeltaLoadECPRC1,{C691668B-2F39-492E-BDD7-8E07AE805E4B},{12D6CD60-48A7-47E2-B104-2A3CF5485A89},11/25/2016 10:19:04 AM,11/25/2016 10:19:04 AM,0,0x,End of package execution.

PackageStart,WIN-SIPPC8OIN8R,WIN-SIPPC8OIN8R\Administrator,DeltaLoadECPRC1,{C691668B-2F39-492E-BDD7-8E07AE805E4B},{59A7E246-D734-4DFD-B3F1-8047D0197564},12/5/2016 6:21:37 AM,12/5/2016 6:21:37 AM,0,0x,Beginning of package execution.

PackageEnd,WIN-SIPPC8OIN8R,WIN-SIPPC8OIN8R\Administrator,DeltaLoadECPRC1,{C691668B-2F39-492E-BDD7-8E07AE805E4B},{59A7E246-D734-4DFD-B3F1-8047D0197564},12/5/2016 6:22:34 AM,12/5/2016 6:22:34 AM,0,0x,End of package execution.

PackageStart,WIN-SIPPC8OIN8R,WIN-SIPPC8OIN8R\Administrator,DeltaLoadECPRC1,{C691668B-2F39-492E-BDD7-8E07AE805E4B},{0171A9E0-A4F6-4687-A68B-1911F0DFC4FE},12/7/2016 8:10:32 AM,12/7/2016 8:10:32 AM,0,0x,Beginning of package execution.

PackageEnd,WIN-SIPPC8OIN8R,WIN-SIPPC8OIN8R\Administrator,DeltaLoadECPRC1,{C691668B-2F39-492E-BDD7-8E07AE805E4B},{0171A9E0-A4F6-4687-A68B-1911F0DFC4FE},12/7/2016 8:11:17 AM,12/7/2016 8:11:17 AM,0,0x,End of package execution.

PackageStart,WIN-SIPPC8OIN8R,WIN-SIPPC8OIN8R\Administrator,DeltaLoadECPRC1,{C691668B-2F39-492E-BDD7-8E07AE805E4B},{63CE8C60-AACA-4236-9ED4-B8D878806567},12/8/2016 6:44:24 AM,12/8/2016 6:44:24 AM,0,0x,Beginning of package execution.

PackageEnd,WIN-SIPPC8OIN8R,WIN-SIPPC8OIN8R\Administrator,DeltaLoadECPRC1,{C691668B-2F39-492E-BDD7-8E07AE805E4B},{63CE8C60-AACA-4236-9ED4-B8D878806567},12/8/2016 6:45:03 AM,12/8/2016 6:45:03 AM,0,0x,End of package execution.

PackageStart,WIN-SIPPC8OIN8R,WIN-SIPPC8OIN8R\Administrator,DeltaLoadECPRC1,{C691668B-2F39-492E-BDD7-8E07AE805E4B},{49F3D926-1A9B-4669-AFC0-A75B972F91F5},12/9/2016 7:56:38 AM,12/9/2016 7:56:38 AM,0,0x,Beginning of package execution.

PackageEnd,WIN-SIPPC8OIN8R,WIN-SIPPC8OIN8R\Administrator,DeltaLoadECPRC1,{C691668B-2F39-492E-BDD7-8E07AE805E4B},{49F3D926-1A9B-4669-AFC0-A75B972F91F5},12/9/2016 7:57:23 AM,12/9/2016 7:57:23 AM,0,0x,End of package execution.

PackageStart,WIN-SIPPC8OIN8R,WIN-SIPPC8OIN8R\Administrator,DeltaLoadECPRC1,{C691668B-2F39-492E-BDD7-8E07AE805E4B},{76C32A67-3AA8-4D38-82A3-C857D4E08FF9},12/12/2016 1:14:16 PM,12/12/2016 1:14:16 PM,0,0x,Beginning of package execution.

PackageEnd,WIN-SIPPC8OIN8R,WIN-SIPPC8OIN8R\Administrator,DeltaLoadECPRC1,{C691668B-2F39-492E-BDD7-8E07AE805E4B},{76C32A67-3AA8-4D38-82A3-C857D4E08FF9},12/12/2016 1:15:27 PM,12/12/2016 1:15:27 PM,0,0x,End of package execution.

PackageStart,WIN-SIPPC8OIN8R,WIN-SIPPC8OIN8R\Administrator,DeltaLoadECPRC1,{C691668B-2F39-492E-BDD7-8E07AE805E4B},{D86C5822-4715-4572-B638-A014836D11A7},1/13/2017 10:00:36 AM,1/13/2017 10:00:36 AM,0,0x,Beginning of package execution.

PackageEnd,WIN-SIPPC8OIN8R,WIN-SIPPC8OIN8R\Administrator,DeltaLoadECPRC1,{C691668B-2F39-492E-BDD7-8E07AE805E4B},{D86C5822-4715-4572-B638-A014836D11A7},1/13/2017 10:05:24 AM,1/13/2017 10:05:24 AM,0,0x,End of package execution.

