#Fields: event,computer,operator,source,sourceid,executionid,starttime,endtime,datacode,databytes,message
PackageStart,PEAKLENOVO,PEAKLENOVO\peak,Publish_Comments,{B0B2D07F-8CCF-45A1-AAF0-157EAAC772D8},{C6877656-FB9F-4AB4-A474-AFD34CE48B4C},25-10-2016 20:06:57,25-10-2016 20:06:57,0,0x,Beginning of package execution.

PackageEnd,PEAKLENOVO,PEAKLENOVO\peak,Publish_Comments,{B0B2D07F-8CCF-45A1-AAF0-157EAAC772D8},{C6877656-FB9F-4AB4-A474-AFD34CE48B4C},25-10-2016 20:11:27,25-10-2016 20:11:27,0,0x,End of package execution.

PackageStart,PEAKLENOVO,PEAKLENOVO\peak,Publish_Comments,{B0B2D07F-8CCF-45A1-AAF0-157EAAC772D8},{5B7F22B4-20D5-468A-8BA4-CCA04E286489},03-11-2016 16:34:54,03-11-2016 16:34:54,0,0x,Beginning of package execution.

PackageEnd,PEAKLENOVO,PEAKLENOVO\peak,Publish_Comments,{B0B2D07F-8CCF-45A1-AAF0-157EAAC772D8},{5B7F22B4-20D5-468A-8BA4-CCA04E286489},03-11-2016 16:37:58,03-11-2016 16:37:58,0,0x,End of package execution.

PackageStart,PEAKLENOVO,PEAKLENOVO\peak,Publish_Comments,{B0B2D07F-8CCF-45A1-AAF0-157EAAC772D8},{4B8BB06D-E84F-49AE-A450-3142DB79B1FC},07-11-2016 14:23:10,07-11-2016 14:23:10,0,0x,Beginning of package execution.

PackageEnd,PEAKLENOVO,PEAKLENOVO\peak,Publish_Comments,{B0B2D07F-8CCF-45A1-AAF0-157EAAC772D8},{4B8BB06D-E84F-49AE-A450-3142DB79B1FC},07-11-2016 14:25:51,07-11-2016 14:25:51,0,0x,End of package execution.

PackageStart,PEAKLENOVO,PEAKLENOVO\peak,Publish_Comments,{B0B2D07F-8CCF-45A1-AAF0-157EAAC772D8},{48CFCC7A-71A7-43AE-B82D-CAC416865924},07-11-2016 19:36:04,07-11-2016 19:36:04,0,0x,Beginning of package execution.

PackageEnd,PEAKLENOVO,PEAKLENOVO\peak,Publish_Comments,{B0B2D07F-8CCF-45A1-AAF0-157EAAC772D8},{48CFCC7A-71A7-43AE-B82D-CAC416865924},07-11-2016 19:37:56,07-11-2016 19:37:56,0,0x,End of package execution.

PackageStart,WIN-SIPPC8OIN8R,WIN-SIPPC8OIN8R\Administrator,Publish_Comments,{B0B2D07F-8CCF-45A1-AAF0-157EAAC772D8},{BDFA3E2C-5E57-445C-BAB1-AD48513CB1D4},12/5/2016 7:06:30 AM,12/5/2016 7:06:30 AM,0,0x,Beginning of package execution.

PackageEnd,WIN-SIPPC8OIN8R,WIN-SIPPC8OIN8R\Administrator,Publish_Comments,{B0B2D07F-8CCF-45A1-AAF0-157EAAC772D8},{BDFA3E2C-5E57-445C-BAB1-AD48513CB1D4},12/5/2016 7:07:38 AM,12/5/2016 7:07:38 AM,0,0x,End of package execution.

PackageStart,WIN-SIPPC8OIN8R,WIN-SIPPC8OIN8R\Administrator,Publish_Comments,{B0B2D07F-8CCF-45A1-AAF0-157EAAC772D8},{C471263B-5970-4FA8-8221-A9FC0E3578D2},12/7/2016 9:02:59 AM,12/7/2016 9:02:59 AM,0,0x,Beginning of package execution.

PackageEnd,WIN-SIPPC8OIN8R,WIN-SIPPC8OIN8R\Administrator,Publish_Comments,{B0B2D07F-8CCF-45A1-AAF0-157EAAC772D8},{C471263B-5970-4FA8-8221-A9FC0E3578D2},12/7/2016 9:03:49 AM,12/7/2016 9:03:49 AM,0,0x,End of package execution.

PackageStart,WIN-SIPPC8OIN8R,WIN-SIPPC8OIN8R\Administrator,Publish_Comments,{B0B2D07F-8CCF-45A1-AAF0-157EAAC772D8},{6D513967-59C7-49D8-A82B-F9810FC512E4},12/8/2016 7:48:11 AM,12/8/2016 7:48:11 AM,0,0x,Beginning of package execution.

OnError,WIN-SIPPC8OIN8R,WIN-SIPPC8OIN8R\Administrator,EST Insert For Comments,{A051B866-6045-4867-A3A2-8BAD859BBE52},{6D513967-59C7-49D8-A82B-F9810FC512E4},12/8/2016 7:48:14 AM,12/8/2016 7:48:14 AM,-1073548784,0x,Executing the query "

With COMMENTS_SUCC_DT AS 
(
/* max success date ..." failed with the following error: "Incorrect syntax near 'qte'.". Possible failure reasons: Problems with the query, "ResultSet" property not set correctly, parameters not set correctly, or connection not established correctly.

OnError,WIN-SIPPC8OIN8R,WIN-SIPPC8OIN8R\Administrator,Publish_Comments,{B0B2D07F-8CCF-45A1-AAF0-157EAAC772D8},{6D513967-59C7-49D8-A82B-F9810FC512E4},12/8/2016 7:48:14 AM,12/8/2016 7:48:14 AM,-1073548784,0x,Executing the query "

With COMMENTS_SUCC_DT AS 
(
/* max success date ..." failed with the following error: "Incorrect syntax near 'qte'.". Possible failure reasons: Problems with the query, "ResultSet" property not set correctly, parameters not set correctly, or connection not established correctly.

OnTaskFailed,WIN-SIPPC8OIN8R,WIN-SIPPC8OIN8R\Administrator,EST Insert For Comments,{A051B866-6045-4867-A3A2-8BAD859BBE52},{6D513967-59C7-49D8-A82B-F9810FC512E4},12/8/2016 7:48:14 AM,12/8/2016 7:48:14 AM,0,0x,
PackageEnd,WIN-SIPPC8OIN8R,WIN-SIPPC8OIN8R\Administrator,Publish_Comments,{B0B2D07F-8CCF-45A1-AAF0-157EAAC772D8},{6D513967-59C7-49D8-A82B-F9810FC512E4},12/8/2016 7:48:14 AM,12/8/2016 7:48:14 AM,1,0x,End of package execution.

PackageStart,WIN-SIPPC8OIN8R,WIN-SIPPC8OIN8R\Administrator,Publish_Comments,{B0B2D07F-8CCF-45A1-AAF0-157EAAC772D8},{8BB4A2E4-F09D-4B9F-B96C-D8495DD26E1F},12/8/2016 12:35:15 PM,12/8/2016 12:35:15 PM,0,0x,Beginning of package execution.

PackageEnd,WIN-SIPPC8OIN8R,WIN-SIPPC8OIN8R\Administrator,Publish_Comments,{B0B2D07F-8CCF-45A1-AAF0-157EAAC772D8},{8BB4A2E4-F09D-4B9F-B96C-D8495DD26E1F},12/8/2016 12:35:23 PM,12/8/2016 12:35:23 PM,0,0x,End of package execution.

PackageStart,WIN-SIPPC8OIN8R,WIN-SIPPC8OIN8R\Administrator,Publish_Comments,{B0B2D07F-8CCF-45A1-AAF0-157EAAC772D8},{6AB9C983-8223-4FB3-850B-813BCF57C518},12/9/2016 8:42:14 AM,12/9/2016 8:42:14 AM,0,0x,Beginning of package execution.

PackageEnd,WIN-SIPPC8OIN8R,WIN-SIPPC8OIN8R\Administrator,Publish_Comments,{B0B2D07F-8CCF-45A1-AAF0-157EAAC772D8},{6AB9C983-8223-4FB3-850B-813BCF57C518},12/9/2016 8:42:48 AM,12/9/2016 8:42:48 AM,0,0x,End of package execution.

PackageStart,WIN-SIPPC8OIN8R,WIN-SIPPC8OIN8R\Administrator,Publish_Comments,{B0B2D07F-8CCF-45A1-AAF0-157EAAC772D8},{491CAAD7-B25E-43FA-BCAA-66706D078EF7},12/12/2016 1:45:25 PM,12/12/2016 1:45:25 PM,0,0x,Beginning of package execution.

PackageEnd,WIN-SIPPC8OIN8R,WIN-SIPPC8OIN8R\Administrator,Publish_Comments,{B0B2D07F-8CCF-45A1-AAF0-157EAAC772D8},{491CAAD7-B25E-43FA-BCAA-66706D078EF7},12/12/2016 1:45:46 PM,12/12/2016 1:45:46 PM,0,0x,End of package execution.

PackageStart,WIN-SIPPC8OIN8R,WIN-SIPPC8OIN8R\RajeshMishra,Publish_Comments,{B0B2D07F-8CCF-45A1-AAF0-157EAAC772D8},{FDE5DB39-8FE3-44FA-8F34-512FBD276A5B},1/13/2017 12:21:19 PM,1/13/2017 12:21:19 PM,0,0x,Beginning of package execution.

PackageEnd,WIN-SIPPC8OIN8R,WIN-SIPPC8OIN8R\RajeshMishra,Publish_Comments,{B0B2D07F-8CCF-45A1-AAF0-157EAAC772D8},{FDE5DB39-8FE3-44FA-8F34-512FBD276A5B},1/13/2017 12:21:31 PM,1/13/2017 12:21:31 PM,0,0x,End of package execution.

