#Fields: event,computer,operator,source,sourceid,executionid,starttime,endtime,datacode,databytes,message
PackageStart,PEAKLENOVO,PEAKLENOVO\peak,Publish_ContactHistory,{E819890E-6C78-4DBC-825A-524FC4FADDBC},{BC677C90-2D82-4943-A3CD-133E27D0AECD},25-10-2016 20:06:57,25-10-2016 20:06:57,0,0x,Beginning of package execution.

PackageEnd,PEAKLENOVO,PEAKLENOVO\peak,Publish_ContactHistory,{E819890E-6C78-4DBC-825A-524FC4FADDBC},{BC677C90-2D82-4943-A3CD-133E27D0AECD},25-10-2016 20:10:18,25-10-2016 20:10:18,0,0x,End of package execution.

PackageStart,PEAKLENOVO,PEAKLENOVO\peak,Publish_ContactHistory,{E819890E-6C78-4DBC-825A-524FC4FADDBC},{3229C01E-DADF-4112-8824-9A491F298522},03-11-2016 16:34:54,03-11-2016 16:34:54,0,0x,Beginning of package execution.

PackageEnd,PEAKLENOVO,PEAKLENOVO\peak,Publish_ContactHistory,{E819890E-6C78-4DBC-825A-524FC4FADDBC},{3229C01E-DADF-4112-8824-9A491F298522},03-11-2016 16:38:03,03-11-2016 16:38:03,0,0x,End of package execution.

PackageStart,PEAKLENOVO,PEAKLENOVO\peak,Publish_ContactHistory,{E819890E-6C78-4DBC-825A-524FC4FADDBC},{A304A53A-154C-4C16-9277-616AB878D74C},07-11-2016 14:23:10,07-11-2016 14:23:10,0,0x,Beginning of package execution.

PackageEnd,PEAKLENOVO,PEAKLENOVO\peak,Publish_ContactHistory,{E819890E-6C78-4DBC-825A-524FC4FADDBC},{A304A53A-154C-4C16-9277-616AB878D74C},07-11-2016 14:25:51,07-11-2016 14:25:51,0,0x,End of package execution.

PackageStart,PEAKLENOVO,PEAKLENOVO\peak,Publish_ContactHistory,{E819890E-6C78-4DBC-825A-524FC4FADDBC},{28E4E594-96C3-4EFC-A770-6EF6F2DFC2CA},07-11-2016 19:36:04,07-11-2016 19:36:04,0,0x,Beginning of package execution.

PackageEnd,PEAKLENOVO,PEAKLENOVO\peak,Publish_ContactHistory,{E819890E-6C78-4DBC-825A-524FC4FADDBC},{28E4E594-96C3-4EFC-A770-6EF6F2DFC2CA},07-11-2016 19:37:45,07-11-2016 19:37:45,0,0x,End of package execution.

PackageStart,WIN-SIPPC8OIN8R,WIN-SIPPC8OIN8R\Administrator,Publish_ContactHistory,{E819890E-6C78-4DBC-825A-524FC4FADDBC},{91B1F82F-83A2-4895-BBAC-FC8DDC6C3C6E},12/5/2016 7:06:30 AM,12/5/2016 7:06:30 AM,0,0x,Beginning of package execution.

PackageEnd,WIN-SIPPC8OIN8R,WIN-SIPPC8OIN8R\Administrator,Publish_ContactHistory,{E819890E-6C78-4DBC-825A-524FC4FADDBC},{91B1F82F-83A2-4895-BBAC-FC8DDC6C3C6E},12/5/2016 7:07:25 AM,12/5/2016 7:07:25 AM,0,0x,End of package execution.

PackageStart,WIN-SIPPC8OIN8R,WIN-SIPPC8OIN8R\Administrator,Publish_ContactHistory,{E819890E-6C78-4DBC-825A-524FC4FADDBC},{F47C94D8-3518-4DFC-874E-CBCA0810B556},12/7/2016 9:02:59 AM,12/7/2016 9:02:59 AM,0,0x,Beginning of package execution.

PackageEnd,WIN-SIPPC8OIN8R,WIN-SIPPC8OIN8R\Administrator,Publish_ContactHistory,{E819890E-6C78-4DBC-825A-524FC4FADDBC},{F47C94D8-3518-4DFC-874E-CBCA0810B556},12/7/2016 9:03:57 AM,12/7/2016 9:03:57 AM,0,0x,End of package execution.

PackageStart,WIN-SIPPC8OIN8R,WIN-SIPPC8OIN8R\Administrator,Publish_ContactHistory,{E819890E-6C78-4DBC-825A-524FC4FADDBC},{37B8ACA8-B93F-4B1B-9512-F246D6D4BFE8},12/8/2016 7:48:12 AM,12/8/2016 7:48:12 AM,0,0x,Beginning of package execution.

PackageEnd,WIN-SIPPC8OIN8R,WIN-SIPPC8OIN8R\Administrator,Publish_ContactHistory,{E819890E-6C78-4DBC-825A-524FC4FADDBC},{37B8ACA8-B93F-4B1B-9512-F246D6D4BFE8},12/8/2016 7:48:43 AM,12/8/2016 7:48:43 AM,0,0x,End of package execution.

PackageStart,WIN-SIPPC8OIN8R,WIN-SIPPC8OIN8R\Administrator,Publish_ContactHistory,{E819890E-6C78-4DBC-825A-524FC4FADDBC},{C6A0AC20-5E70-4428-94AD-8764786DE89E},12/9/2016 8:42:14 AM,12/9/2016 8:42:14 AM,0,0x,Beginning of package execution.

PackageEnd,WIN-SIPPC8OIN8R,WIN-SIPPC8OIN8R\Administrator,Publish_ContactHistory,{E819890E-6C78-4DBC-825A-524FC4FADDBC},{C6A0AC20-5E70-4428-94AD-8764786DE89E},12/9/2016 8:42:47 AM,12/9/2016 8:42:47 AM,0,0x,End of package execution.

PackageStart,WIN-SIPPC8OIN8R,WIN-SIPPC8OIN8R\Administrator,Publish_ContactHistory,{E819890E-6C78-4DBC-825A-524FC4FADDBC},{AFFB2D02-7F4D-4C1E-9138-9B4E60165A5F},12/12/2016 1:45:25 PM,12/12/2016 1:45:25 PM,0,0x,Beginning of package execution.

PackageEnd,WIN-SIPPC8OIN8R,WIN-SIPPC8OIN8R\Administrator,Publish_ContactHistory,{E819890E-6C78-4DBC-825A-524FC4FADDBC},{AFFB2D02-7F4D-4C1E-9138-9B4E60165A5F},12/12/2016 1:45:46 PM,12/12/2016 1:45:46 PM,0,0x,End of package execution.

PackageStart,WIN-SIPPC8OIN8R,WIN-SIPPC8OIN8R\RajeshMishra,Publish_ContactHistory,{E819890E-6C78-4DBC-825A-524FC4FADDBC},{FB9405D2-71EB-4540-9632-E1C805A62E02},1/13/2017 12:21:20 PM,1/13/2017 12:21:20 PM,0,0x,Beginning of package execution.

PackageEnd,WIN-SIPPC8OIN8R,WIN-SIPPC8OIN8R\RajeshMishra,Publish_ContactHistory,{E819890E-6C78-4DBC-825A-524FC4FADDBC},{FB9405D2-71EB-4540-9632-E1C805A62E02},1/13/2017 12:21:30 PM,1/13/2017 12:21:30 PM,0,0x,End of package execution.

