#Fields: event,computer,operator,source,sourceid,executionid,starttime,endtime,datacode,databytes,message
PackageStart,A,a\admin,ScheduledAddressChanges,{526CDCC3-AAC7-4934-8578-BAB71D2985CB},{076B6724-AC05-4976-B179-3D2B88D43E54},24/10/2016 13:23:55,24/10/2016 13:23:55,0,0x,Beginning of package execution.

PackageEnd,A,a\admin,ScheduledAddressChanges,{526CDCC3-AAC7-4934-8578-BAB71D2985CB},{076B6724-AC05-4976-B179-3D2B88D43E54},24/10/2016 13:23:58,24/10/2016 13:23:58,0,0x,End of package execution.

PackageStart,PEAKLENOVO,PEAKLENOVO\peak,ScheduledAddressChanges,{526CDCC3-AAC7-4934-8578-BAB71D2985CB},{B7AB752C-1A48-40C6-B506-89DD647AA4CC},25-10-2016 15:26:21,25-10-2016 15:26:21,0,0x,Beginning of package execution.

PackageEnd,PEAKLENOVO,PEAKLENOVO\peak,ScheduledAddressChanges,{526CDCC3-AAC7-4934-8578-BAB71D2985CB},{B7AB752C-1A48-40C6-B506-89DD647AA4CC},25-10-2016 15:26:30,25-10-2016 15:26:30,0,0x,End of package execution.

PackageStart,PEAKLENOVO,PEAKLENOVO\peak,ScheduledAddressChanges,{526CDCC3-AAC7-4934-8578-BAB71D2985CB},{91CFE5FE-0372-4DFC-9596-8D6D6F7092D2},03-11-2016 11:57:47,03-11-2016 11:57:47,0,0x,Beginning of package execution.

PackageEnd,PEAKLENOVO,PEAKLENOVO\peak,ScheduledAddressChanges,{526CDCC3-AAC7-4934-8578-BAB71D2985CB},{91CFE5FE-0372-4DFC-9596-8D6D6F7092D2},03-11-2016 11:58:54,03-11-2016 11:58:54,0,0x,End of package execution.

PackageStart,PEAKLENOVO,PEAKLENOVO\peak,ScheduledAddressChanges,{526CDCC3-AAC7-4934-8578-BAB71D2985CB},{F9F08587-AD8F-47ED-84CB-FAE372C5EF49},04-11-2016 17:17:24,04-11-2016 17:17:24,0,0x,Beginning of package execution.

PackageEnd,PEAKLENOVO,PEAKLENOVO\peak,ScheduledAddressChanges,{526CDCC3-AAC7-4934-8578-BAB71D2985CB},{F9F08587-AD8F-47ED-84CB-FAE372C5EF49},04-11-2016 17:21:00,04-11-2016 17:21:00,0,0x,End of package execution.

PackageStart,PEAKLENOVO,PEAKLENOVO\peak,ScheduledAddressChanges,{526CDCC3-AAC7-4934-8578-BAB71D2985CB},{BBA960C6-8C7D-4EAA-A49E-F28ACF298B52},07-11-2016 16:03:52,07-11-2016 16:03:52,0,0x,Beginning of package execution.

PackageEnd,PEAKLENOVO,PEAKLENOVO\peak,ScheduledAddressChanges,{526CDCC3-AAC7-4934-8578-BAB71D2985CB},{BBA960C6-8C7D-4EAA-A49E-F28ACF298B52},07-11-2016 16:07:12,07-11-2016 16:07:12,0,0x,End of package execution.

PackageStart,PEAKLENOVO,PEAKLENOVO\peak,ScheduledAddressChanges,{526CDCC3-AAC7-4934-8578-BAB71D2985CB},{15924A47-868E-4EF4-8F3F-D1E29C8D73B1},07-11-2016 16:54:33,07-11-2016 16:54:33,0,0x,Beginning of package execution.

PackageEnd,PEAKLENOVO,PEAKLENOVO\peak,ScheduledAddressChanges,{526CDCC3-AAC7-4934-8578-BAB71D2985CB},{15924A47-868E-4EF4-8F3F-D1E29C8D73B1},07-11-2016 16:56:50,07-11-2016 16:56:50,0,0x,End of package execution.

PackageStart,WIN-SIPPC8OIN8R,WIN-SIPPC8OIN8R\Administrator,ScheduledAddressChanges,{526CDCC3-AAC7-4934-8578-BAB71D2985CB},{3A189AAD-392B-4B2B-ABD3-DA0387D2D61B},11/25/2016 8:43:52 AM,11/25/2016 8:43:52 AM,0,0x,Beginning of package execution.

PackageEnd,WIN-SIPPC8OIN8R,WIN-SIPPC8OIN8R\Administrator,ScheduledAddressChanges,{526CDCC3-AAC7-4934-8578-BAB71D2985CB},{3A189AAD-392B-4B2B-ABD3-DA0387D2D61B},11/25/2016 8:44:08 AM,11/25/2016 8:44:08 AM,0,0x,End of package execution.

PackageStart,WIN-SIPPC8OIN8R,WIN-SIPPC8OIN8R\Administrator,ScheduledAddressChanges,{526CDCC3-AAC7-4934-8578-BAB71D2985CB},{74241311-2B24-4AF5-B1BF-5568EB81513E},12/5/2016 6:24:23 AM,12/5/2016 6:24:23 AM,0,0x,Beginning of package execution.

PackageEnd,WIN-SIPPC8OIN8R,WIN-SIPPC8OIN8R\Administrator,ScheduledAddressChanges,{526CDCC3-AAC7-4934-8578-BAB71D2985CB},{74241311-2B24-4AF5-B1BF-5568EB81513E},12/5/2016 6:24:31 AM,12/5/2016 6:24:31 AM,0,0x,End of package execution.

PackageStart,WIN-SIPPC8OIN8R,WIN-SIPPC8OIN8R\Administrator,ScheduledAddressChanges,{526CDCC3-AAC7-4934-8578-BAB71D2985CB},{5F2281E9-71E8-4C52-9639-A95CE2D8659F},12/7/2016 8:10:23 AM,12/7/2016 8:10:23 AM,0,0x,Beginning of package execution.

PackageEnd,WIN-SIPPC8OIN8R,WIN-SIPPC8OIN8R\Administrator,ScheduledAddressChanges,{526CDCC3-AAC7-4934-8578-BAB71D2985CB},{5F2281E9-71E8-4C52-9639-A95CE2D8659F},12/7/2016 8:10:32 AM,12/7/2016 8:10:32 AM,0,0x,End of package execution.

PackageStart,WIN-SIPPC8OIN8R,WIN-SIPPC8OIN8R\Administrator,ScheduledAddressChanges,{526CDCC3-AAC7-4934-8578-BAB71D2985CB},{24E971A8-794C-459E-B476-223DFAAEAD98},12/8/2016 6:44:24 AM,12/8/2016 6:44:24 AM,0,0x,Beginning of package execution.

PackageEnd,WIN-SIPPC8OIN8R,WIN-SIPPC8OIN8R\Administrator,ScheduledAddressChanges,{526CDCC3-AAC7-4934-8578-BAB71D2985CB},{24E971A8-794C-459E-B476-223DFAAEAD98},12/8/2016 6:44:38 AM,12/8/2016 6:44:38 AM,0,0x,End of package execution.

PackageStart,WIN-SIPPC8OIN8R,WIN-SIPPC8OIN8R\Administrator,ScheduledAddressChanges,{526CDCC3-AAC7-4934-8578-BAB71D2985CB},{E608C8B9-FF66-41C7-83CA-70DBC2D6378D},12/9/2016 7:56:38 AM,12/9/2016 7:56:38 AM,0,0x,Beginning of package execution.

PackageEnd,WIN-SIPPC8OIN8R,WIN-SIPPC8OIN8R\Administrator,ScheduledAddressChanges,{526CDCC3-AAC7-4934-8578-BAB71D2985CB},{E608C8B9-FF66-41C7-83CA-70DBC2D6378D},12/9/2016 7:56:50 AM,12/9/2016 7:56:50 AM,0,0x,End of package execution.

PackageStart,WIN-SIPPC8OIN8R,WIN-SIPPC8OIN8R\Administrator,ScheduledAddressChanges,{526CDCC3-AAC7-4934-8578-BAB71D2985CB},{69E2574A-A9F3-44E0-AC42-9DCF91174AD9},12/12/2016 1:14:07 PM,12/12/2016 1:14:07 PM,0,0x,Beginning of package execution.

PackageEnd,WIN-SIPPC8OIN8R,WIN-SIPPC8OIN8R\Administrator,ScheduledAddressChanges,{526CDCC3-AAC7-4934-8578-BAB71D2985CB},{69E2574A-A9F3-44E0-AC42-9DCF91174AD9},12/12/2016 1:14:38 PM,12/12/2016 1:14:38 PM,0,0x,End of package execution.

PackageStart,WIN-SIPPC8OIN8R,WIN-SIPPC8OIN8R\Administrator,ScheduledAddressChanges,{526CDCC3-AAC7-4934-8578-BAB71D2985CB},{3E24E53A-296E-4F09-8F12-2E1A349DF452},1/13/2017 10:00:36 AM,1/13/2017 10:00:36 AM,0,0x,Beginning of package execution.

PackageEnd,WIN-SIPPC8OIN8R,WIN-SIPPC8OIN8R\Administrator,ScheduledAddressChanges,{526CDCC3-AAC7-4934-8578-BAB71D2985CB},{3E24E53A-296E-4F09-8F12-2E1A349DF452},1/13/2017 10:02:26 AM,1/13/2017 10:02:26 AM,0,0x,End of package execution.

