#Fields: event,computer,operator,source,sourceid,executionid,starttime,endtime,datacode,databytes,message
PackageStart,A,a\admin,PaymentHistory,{CD6195B4-22D2-4B3E-B744-C226C495EDA5},{5B168731-75EC-4BB8-B690-EE0443893097},24/10/2016 13:23:50,24/10/2016 13:23:50,0,0x,Beginning of package execution.

PackageEnd,A,a\admin,PaymentHistory,{CD6195B4-22D2-4B3E-B744-C226C495EDA5},{5B168731-75EC-4BB8-B690-EE0443893097},24/10/2016 13:24:05,24/10/2016 13:24:05,0,0x,End of package execution.

PackageStart,PEAKLENOVO,PEAKLENOVO\peak,PaymentHistory,{CD6195B4-22D2-4B3E-B744-C226C495EDA5},{76C4A75B-0501-4827-A47B-2D35D3747429},25-10-2016 15:26:17,25-10-2016 15:26:17,0,0x,Beginning of package execution.

PackageEnd,PEAKLENOVO,PEAKLENOVO\peak,PaymentHistory,{CD6195B4-22D2-4B3E-B744-C226C495EDA5},{76C4A75B-0501-4827-A47B-2D35D3747429},25-10-2016 15:26:40,25-10-2016 15:26:40,0,0x,End of package execution.

PackageStart,PEAKLENOVO,PEAKLENOVO\peak,PaymentHistory,{CD6195B4-22D2-4B3E-B744-C226C495EDA5},{EBA627C5-80D8-469C-A65B-EC8CA66AD10A},03-11-2016 11:57:43,03-11-2016 11:57:43,0,0x,Beginning of package execution.

PackageEnd,PEAKLENOVO,PEAKLENOVO\peak,PaymentHistory,{CD6195B4-22D2-4B3E-B744-C226C495EDA5},{EBA627C5-80D8-469C-A65B-EC8CA66AD10A},03-11-2016 11:59:08,03-11-2016 11:59:08,0,0x,End of package execution.

PackageStart,PEAKLENOVO,PEAKLENOVO\peak,PaymentHistory,{CD6195B4-22D2-4B3E-B744-C226C495EDA5},{23FF6F0D-B417-4D21-AA29-CFC78CF04A8E},04-11-2016 17:17:17,04-11-2016 17:17:17,0,0x,Beginning of package execution.

PackageEnd,PEAKLENOVO,PEAKLENOVO\peak,PaymentHistory,{CD6195B4-22D2-4B3E-B744-C226C495EDA5},{23FF6F0D-B417-4D21-AA29-CFC78CF04A8E},04-11-2016 17:22:53,04-11-2016 17:22:53,0,0x,End of package execution.

PackageStart,PEAKLENOVO,PEAKLENOVO\peak,PaymentHistory,{CD6195B4-22D2-4B3E-B744-C226C495EDA5},{8192123D-0B51-471A-9186-9FC1DFB1EE13},07-11-2016 16:03:52,07-11-2016 16:03:52,0,0x,Beginning of package execution.

PackageEnd,PEAKLENOVO,PEAKLENOVO\peak,PaymentHistory,{CD6195B4-22D2-4B3E-B744-C226C495EDA5},{8192123D-0B51-471A-9186-9FC1DFB1EE13},07-11-2016 16:11:30,07-11-2016 16:11:30,0,0x,End of package execution.

PackageStart,PEAKLENOVO,PEAKLENOVO\peak,PaymentHistory,{CD6195B4-22D2-4B3E-B744-C226C495EDA5},{BA56F046-F4DE-4D78-90C8-D9E95A543CE5},07-11-2016 16:54:31,07-11-2016 16:54:31,0,0x,Beginning of package execution.

PackageEnd,PEAKLENOVO,PEAKLENOVO\peak,PaymentHistory,{CD6195B4-22D2-4B3E-B744-C226C495EDA5},{BA56F046-F4DE-4D78-90C8-D9E95A543CE5},07-11-2016 17:02:37,07-11-2016 17:02:37,0,0x,End of package execution.

PackageStart,WIN-SIPPC8OIN8R,WIN-SIPPC8OIN8R\Administrator,PaymentHistory,{CD6195B4-22D2-4B3E-B744-C226C495EDA5},{3667DC35-3069-4654-96D8-1DAAE532E4E0},11/25/2016 8:43:52 AM,11/25/2016 8:43:52 AM,0,0x,Beginning of package execution.

OnError,WIN-SIPPC8OIN8R,WIN-SIPPC8OIN8R\Administrator,PaymentHistory,{CD6195B4-22D2-4B3E-B744-C226C495EDA5},{3667DC35-3069-4654-96D8-1DAAE532E4E0},11/25/2016 8:46:06 AM,11/25/2016 8:46:06 AM,-1073450901,0x,"OLE DB Destination" failed validation and returned validation status "VS_NEEDSNEWMETADATA".

OnError,WIN-SIPPC8OIN8R,WIN-SIPPC8OIN8R\Administrator,PaymentHistory,{CD6195B4-22D2-4B3E-B744-C226C495EDA5},{3667DC35-3069-4654-96D8-1DAAE532E4E0},11/25/2016 8:46:06 AM,11/25/2016 8:46:06 AM,-1073450996,0x,One or more component failed validation.

OnError,WIN-SIPPC8OIN8R,WIN-SIPPC8OIN8R\Administrator,PaymentHistory,{CD6195B4-22D2-4B3E-B744-C226C495EDA5},{3667DC35-3069-4654-96D8-1DAAE532E4E0},11/25/2016 8:46:06 AM,11/25/2016 8:46:06 AM,-1073594105,0x,There were errors during task validation.

PackageEnd,WIN-SIPPC8OIN8R,WIN-SIPPC8OIN8R\Administrator,PaymentHistory,{CD6195B4-22D2-4B3E-B744-C226C495EDA5},{3667DC35-3069-4654-96D8-1DAAE532E4E0},11/25/2016 8:46:07 AM,11/25/2016 8:46:07 AM,1,0x,End of package execution.

PackageStart,WIN-SIPPC8OIN8R,WIN-SIPPC8OIN8R\Administrator,PaymentHistory,{CD6195B4-22D2-4B3E-B744-C226C495EDA5},{DA5AA4D8-9572-4D52-9E74-A487950B1C5B},11/25/2016 10:19:01 AM,11/25/2016 10:19:01 AM,0,0x,Beginning of package execution.

PackageEnd,WIN-SIPPC8OIN8R,WIN-SIPPC8OIN8R\Administrator,PaymentHistory,{CD6195B4-22D2-4B3E-B744-C226C495EDA5},{DA5AA4D8-9572-4D52-9E74-A487950B1C5B},11/25/2016 10:25:13 AM,11/25/2016 10:25:13 AM,0,0x,End of package execution.

PackageStart,WIN-SIPPC8OIN8R,WIN-SIPPC8OIN8R\Administrator,PaymentHistory,{CD6195B4-22D2-4B3E-B744-C226C495EDA5},{F11D0B1E-F745-4765-8127-1932E39A1452},12/5/2016 6:21:35 AM,12/5/2016 6:21:35 AM,0,0x,Beginning of package execution.

PackageEnd,WIN-SIPPC8OIN8R,WIN-SIPPC8OIN8R\Administrator,PaymentHistory,{CD6195B4-22D2-4B3E-B744-C226C495EDA5},{F11D0B1E-F745-4765-8127-1932E39A1452},12/5/2016 6:23:16 AM,12/5/2016 6:23:16 AM,0,0x,End of package execution.

PackageStart,WIN-SIPPC8OIN8R,WIN-SIPPC8OIN8R\Administrator,PaymentHistory,{CD6195B4-22D2-4B3E-B744-C226C495EDA5},{206CABC2-46A6-4FF6-A7C3-0968EF691EDD},12/7/2016 8:10:22 AM,12/7/2016 8:10:22 AM,0,0x,Beginning of package execution.

PackageEnd,WIN-SIPPC8OIN8R,WIN-SIPPC8OIN8R\Administrator,PaymentHistory,{CD6195B4-22D2-4B3E-B744-C226C495EDA5},{206CABC2-46A6-4FF6-A7C3-0968EF691EDD},12/7/2016 8:12:21 AM,12/7/2016 8:12:21 AM,0,0x,End of package execution.

PackageStart,WIN-SIPPC8OIN8R,WIN-SIPPC8OIN8R\Administrator,PaymentHistory,{CD6195B4-22D2-4B3E-B744-C226C495EDA5},{EC142C09-5E8E-4F54-97E7-314E809C349C},12/8/2016 6:44:39 AM,12/8/2016 6:44:39 AM,0,0x,Beginning of package execution.

PackageEnd,WIN-SIPPC8OIN8R,WIN-SIPPC8OIN8R\Administrator,PaymentHistory,{CD6195B4-22D2-4B3E-B744-C226C495EDA5},{EC142C09-5E8E-4F54-97E7-314E809C349C},12/8/2016 6:46:33 AM,12/8/2016 6:46:33 AM,0,0x,End of package execution.

PackageStart,WIN-SIPPC8OIN8R,WIN-SIPPC8OIN8R\Administrator,PaymentHistory,{CD6195B4-22D2-4B3E-B744-C226C495EDA5},{6FE97C9F-72A9-48CD-8058-25010735EA6E},12/9/2016 7:56:51 AM,12/9/2016 7:56:51 AM,0,0x,Beginning of package execution.

PackageEnd,WIN-SIPPC8OIN8R,WIN-SIPPC8OIN8R\Administrator,PaymentHistory,{CD6195B4-22D2-4B3E-B744-C226C495EDA5},{6FE97C9F-72A9-48CD-8058-25010735EA6E},12/9/2016 7:58:14 AM,12/9/2016 7:58:14 AM,0,0x,End of package execution.

PackageStart,WIN-SIPPC8OIN8R,WIN-SIPPC8OIN8R\Administrator,PaymentHistory,{CD6195B4-22D2-4B3E-B744-C226C495EDA5},{581D3B9A-5BB7-4C3C-B7F4-4ADDFD0BA45F},12/12/2016 1:15:12 PM,12/12/2016 1:15:12 PM,0,0x,Beginning of package execution.

PackageEnd,WIN-SIPPC8OIN8R,WIN-SIPPC8OIN8R\Administrator,PaymentHistory,{CD6195B4-22D2-4B3E-B744-C226C495EDA5},{581D3B9A-5BB7-4C3C-B7F4-4ADDFD0BA45F},12/12/2016 1:17:11 PM,12/12/2016 1:17:11 PM,0,0x,End of package execution.

PackageStart,WIN-SIPPC8OIN8R,WIN-SIPPC8OIN8R\Administrator,PaymentHistory,{CD6195B4-22D2-4B3E-B744-C226C495EDA5},{3544418D-DE88-40BE-B863-CA5B9DC8754C},1/13/2017 10:00:35 AM,1/13/2017 10:00:35 AM,0,0x,Beginning of package execution.

OnError,WIN-SIPPC8OIN8R,WIN-SIPPC8OIN8R\Administrator,PaymentHistory,{CD6195B4-22D2-4B3E-B744-C226C495EDA5},{3544418D-DE88-40BE-B863-CA5B9DC8754C},1/13/2017 10:14:55 AM,1/13/2017 10:14:55 AM,-1073450901,0x,"OLE DB Destination" failed validation and returned validation status "VS_NEEDSNEWMETADATA".

OnError,WIN-SIPPC8OIN8R,WIN-SIPPC8OIN8R\Administrator,PaymentHistory,{CD6195B4-22D2-4B3E-B744-C226C495EDA5},{3544418D-DE88-40BE-B863-CA5B9DC8754C},1/13/2017 10:14:55 AM,1/13/2017 10:14:55 AM,-1073450996,0x,One or more component failed validation.

OnError,WIN-SIPPC8OIN8R,WIN-SIPPC8OIN8R\Administrator,PaymentHistory,{CD6195B4-22D2-4B3E-B744-C226C495EDA5},{3544418D-DE88-40BE-B863-CA5B9DC8754C},1/13/2017 10:14:55 AM,1/13/2017 10:14:55 AM,-1073594105,0x,There were errors during task validation.

PackageEnd,WIN-SIPPC8OIN8R,WIN-SIPPC8OIN8R\Administrator,PaymentHistory,{CD6195B4-22D2-4B3E-B744-C226C495EDA5},{3544418D-DE88-40BE-B863-CA5B9DC8754C},1/13/2017 10:14:55 AM,1/13/2017 10:14:55 AM,1,0x,End of package execution.

PackageStart,WIN-SIPPC8OIN8R,WIN-SIPPC8OIN8R\RajeshMishra,PaymentHistory,{CD6195B4-22D2-4B3E-B744-C226C495EDA5},{C702336D-2261-46BD-B455-A6AC61BE4BA9},1/13/2017 11:01:19 AM,1/13/2017 11:01:19 AM,0,0x,Beginning of package execution.

PackageEnd,WIN-SIPPC8OIN8R,WIN-SIPPC8OIN8R\RajeshMishra,PaymentHistory,{CD6195B4-22D2-4B3E-B744-C226C495EDA5},{C702336D-2261-46BD-B455-A6AC61BE4BA9},1/13/2017 11:02:23 AM,1/13/2017 11:02:23 AM,0,0x,End of package execution.

